{
    "$schema": "https://go.kicad.org/pcm/schemas/v1",
    "name": "Space-Filling_Curve",
    "description": "Generate space-filled curves, square, circle, and rectangular outer contours.",
    "description_full": "Hilbert, Moore, and Peano curves, and generate their circular and rectangular curves.",
    "identifier": "com.github.HaydenHu.Space-Filling-Curve",
    "type": "plugin",
    "author": {
        "name": "Hayden Hu",
        "contact": {
            "web": "https://github.com/HaydenHu/Space-Filling-Curve"
        }
    },
    "maintainer": {
        "name": "Hayden Hu",
        "contact": {
            "web": "https://github.com/HaydenHu/Space-Filling-Curve"
        }
    },
    "license": "GPL-3.0",
    "resources": {
        "homepage": "https://github.com/HaydenHu/Space-Filling-Curve"
    },
    "versions": [
        {
            "version": "1.0",
            "status": "stable",
            "kicad_version": "8.0",
            "download_sha256": "e055ac9af8d9a5eafabf261d972787b1fb7c9d4c7d67b706fce819e166671d02",
            "download_size": 76381,
            "download_url": "https://github.com/HaydenHu/Space-Filling-Curve/releases/download/1.0/Space-Filling-Curve.zip",
            "install_size": 86881
        }
    ]
}